digraph asm_graph {
8738168474105 [
shape="Mrecord" fontname="Courier New"label =<<table border="0" cellborder="0" cellpadding="3"><tr><td colspan="2" align="center" bgcolor="grey">loc_0000000000000412</td></tr><tr><td align="left">af = ((EAX^0x1)^(EAX+0x1))[4:5]</td></tr><tr><td align="left">pf = parity(((EAX+0x1)&#0038;0xFF))</td></tr><tr><td align="left">zf = ((EAX+0x1)?(0x0,0x1))</td></tr><tr><td align="left">of = ((EAX^(EAX+0x1))&#0038;((EAX^0x1)^0xFFFFFFFF))[31:32]</td></tr><tr><td align="left">nf = (EAX+0x1)[31:32]</td></tr><tr><td align="left">EAX = (EAX+0x1)</td></tr><tr><td align="left"></td></tr><tr><td align="left">af = ((ECX^0x1)^(ECX+(- 0x1)))[4:5]</td></tr><tr><td align="left">pf = parity(((ECX+(- 0x1))&#0038;0xFF))</td></tr><tr><td align="left">zf = ((ECX+(- 0x1))?(0x0,0x1))</td></tr><tr><td align="left">of = ((ECX^(ECX+(- 0x1)))&#0038;(ECX^0x1))[31:32]</td></tr><tr><td align="left">nf = (ECX+(- 0x1))[31:32]</td></tr><tr><td align="left">cf = (((ECX^0x1)^(ECX+(- 0x1)))^((ECX^(ECX+(- 0x1)))&#0038;(ECX^0x1)))[31:32]</td></tr><tr><td align="left"></td></tr><tr><td align="left">EIP = (zf?(loc_0000000000000412:0x00000412,loc_0000000000000418:0x00000418))</td></tr><tr><td align="left">IRDst = (zf?(loc_0000000000000412:0x00000412,loc_0000000000000418:0x00000418))</td></tr><tr><td align="left"></td></tr></table>> ];
8738168474101 [
shape="Mrecord" fontname="Courier New"label =<<table border="0" cellborder="0" cellpadding="3"><tr><td colspan="2" align="center" bgcolor="grey">loc_0000000000000418</td></tr><tr><td align="left">ESP = &#0123;(ESP[0:32]+0x4) 0 32&#0125;</td></tr><tr><td align="left">EIP = @32[ESP[0:32]]</td></tr><tr><td align="left">IRDst = @32[ESP[0:32]]</td></tr><tr><td align="left"></td></tr></table>> ];
8738168473909 [
shape="Mrecord" fontname="Courier New"label =<<table border="0" cellborder="0" cellpadding="3"><tr><td colspan="2" align="center" bgcolor="grey">loc_0000000000000409</td></tr><tr><td align="left">ECX = @32[(ESP+0x4)]</td></tr><tr><td align="left"></td></tr><tr><td align="left">EAX = 0x0</td></tr><tr><td align="left"></td></tr><tr><td align="left">IRDst = loc_0000000000000412:0x00000412</td></tr><tr><td align="left"></td></tr></table>> ];
8738168474105 -> 8738168474101[color="red"];
8738168474105 -> 8738168474105[color="limegreen"];
8738168473909 -> 8738168474105[color="blue"];
}